{
	"info": {
		"_postman_id": "207272c7-6e27-4f8e-9a2b-ac65edfc13cc",
		"name": "interview-ticketon",
		"schema": "https://schema.getpostman.com/json/collection/v2.1.0/collection.json"
	},
	"item": [
		{
			"name": "upload",
			"request": {
				"method": "POST",
				"header": [],
				"body": {
					"mode": "formdata",
					"formdata": [
						{
							"key": "image",
							"type": "file",
							"src": "/home/enderoasis/Загрузки/oie_transparent(1).png"
						}
					]
				},
				"url": {
					"raw": "http://localhost:8000/api/image/upload",
					"protocol": "http",
					"host": [
						"localhost"
					],
					"port": "8000",
					"path": [
						"api",
						"image",
						"upload"
					]
				}
			},
			"response": []
		},
		{
			"name": "show",
			"request": {
				"method": "GET",
				"header": [],
				"url": {
					"raw": "http://localhost:8000/api/image/part/1",
					"protocol": "http",
					"host": [
						"localhost"
					],
					"port": "8000",
					"path": [
						"api",
						"image",
						"part",
						"1"
					]
				}
			},
			"response": []
		}
	]
}